Email: ropaparati.corporativa@gmail.com
Usuario: ropaparati
Contraseña: W3b32shop

--------------------------------------------------------------

Enlace admin: http://shop-proyectoapp.rhcloud.com/admin-dev/index.php
Enlace usuario: http://shop-proyectoapp.rhcloud.com/es/

--------------------------------------------------------------

