MySQL

MySQL 5.5 database added.  Please make note of these credentials:

       Root User: adminbRkqbga
   Root Password: MVmB_TGE61Pp
   Database Name: blog
	    Host: 127.5.73.130
	    Puerto: 3306

Connection URL: mysql://$OPENSHIFT_MYSQL_DB_HOST:$OPENSHIFT_MYSQL_DB_PORT/

You can manage your new MySQL database by also embedding phpmyadmin.
The phpmyadmin username and password will be the same as the MySQL credentials above.

--------------------------------------------------------------------------------------------

PHP My Admin

Please make note of these MySQL credentials again:
  Root User: adminbRkqbga
  Root Password: MVmB_TGE61Pp
URL: https://blog-proyectoapp.rhcloud.com/phpmyadmin/


--------------------------------------------------------------------------------------------

ClearDB

       Root User: b9fb07358389fe
   Root Password: d706c397
   Database Name: ad_5c3a8b64494702e
	    Host: us-cdbr-iron-east-03.cleardb.net
	    Puerto: 3306
